Uma Jornada pelos TidyModels em R - Regressão
…
A função predict() calcula os valores preditos para o conjunto especificado:

reg_fit %>% predict(ring_train)

## # A tibble: 3,340 × 1
##    .pred
##    <dbl>
##  1  8.00
##  2  8.15
##  3  8.48
##  4  5.94
##  5  5.94
##  6  6.01
##  7  7.43
##  8  6.49
##  9  8.55
## 10 10.9 
## # ℹ 3,330 more rows

A predição com tidymodels garante que:

as predições estarão sempre dentro de um dataframe/tibble;

os nomes e tipos das colunas são previsíveis e intuitivas;

o número de linhas em new_data e a saída são iguais.

Pode-se usar também a função augment(), que calcula os valores preditos e resíduos, adicionando-os em uma coluna no conjunto de dados especificado:

reg_fit %>% augment(ring_train)

## # A tibble: 3,340 × 11
##    .pred    .resid sex    length diameter height whole_weight shucked_weight
##    <dbl>     <dbl> <chr>   <dbl>    <dbl>  <dbl>        <dbl>          <dbl>
##  1  8.00 -0.000960 infant  0.425    0.3    0.095        0.352         0.141 
##  2  8.15 -1.15     infant  0.355    0.28   0.085        0.290         0.095 
##  3  8.48 -0.482    male    0.465    0.355  0.105        0.480         0.227 
##  4  5.94 -0.936    infant  0.24     0.175  0.045        0.07          0.0315
##  5  5.94 -0.942    infant  0.205    0.15   0.055        0.042         0.0255
##  6  6.01 -2.01     infant  0.21     0.15   0.05         0.042         0.0175
##  7  7.43 -0.429    infant  0.39     0.295  0.095        0.203         0.0875
##  8  6.49 -0.490    infant  0.325    0.245  0.07         0.161         0.0755
##  9  8.55 -1.55     male    0.405    0.31   0.1          0.385         0.173 
## 10 10.9  -2.92     female  0.5      0.4    0.14         0.662         0.256 
## # ℹ 3,330 more rows
## # ℹ 3 more variables: viscera_weight <dbl>, shell_weight <dbl>, rings <dbl>
…
Através da validação cruzada, avaliamos o desempenho do modelo apenas com os dados de treinamento, sem usar os dados de teste.

A métrica obtida no conjunto de validação pode ser tomada como uma estimativa da métrica no conjunto de teste.

Caso seja necessário salvar as predições obtidas nas etapas de validação cruzada, para fazer um gráfico, por exemplo, usamos control_resamples:

ctrl_abalone <- control_resamples(save_pred = TRUE)
reg_cv <- fit_resamples(reg_wf, 
               ring_folds, 
               control = ctrl_abalone)
reg_preds <- collect_predictions(reg_cv)
reg_preds

## # A tibble: 3,340 × 5
##    .pred id    rings  .row .config        
##    <dbl> <chr> <dbl> <int> <chr>          
##  1  8.03 Fold1     8     1 pre0_mod0_post0
##  2  8.45 Fold1     8     3 pre0_mod0_post0
##  3 10.9  Fold1     8    10 pre0_mod0_post0
##  4  7.98 Fold1     7    23 pre0_mod0_post0
##  5  7.26 Fold1     7    24 pre0_mod0_post0
##  6  6.31 Fold1     7    25 pre0_mod0_post0
##  7  5.86 Fold1     5    30 pre0_mod0_post0
##  8  8.98 Fold1     8    34 pre0_mod0_post0
##  9  9.51 Fold1     8    38 pre0_mod0_post0
## 10  8.24 Fold1     7    39 pre0_mod0_post0
## # ℹ 3,330 more rows
…
set.seed(9)
tree_res <-
  tune_grid(tree_wf, 
            resamples = ring_folds, 
            grid = 15,
            metrics = abalone_metrics)

É possível fornecer um data.frame na opção grid, para ser mais específico.

Métricas obtidas através de validação cruzada considerando os valores de grid:

tree_res %>% collect_metrics()

## # A tibble: 60 × 7
##    cost_complexity .metric .estimator   mean     n std_err .config         
##              <dbl> <chr>   <chr>       <dbl> <int>   <dbl> <chr>           
##  1        1.13e-10 mae     standard    1.73      5  0.0492 pre0_mod01_post0
##  2        1.13e-10 mape    standard   17.0       5  0.426  pre0_mod01_post0
##  3        1.13e-10 rmse    standard    2.43      5  0.0858 pre0_mod01_post0
##  4        1.13e-10 rsq     standard    0.462     5  0.0160 pre0_mod01_post0
##  5        5.76e-10 mae     standard    1.73      5  0.0492 pre0_mod02_post0
##  6        5.76e-10 mape    standard   17.0       5  0.426  pre0_mod02_post0
##  7        5.76e-10 rmse    standard    2.43      5  0.0858 pre0_mod02_post0
##  8        5.76e-10 rsq     standard    0.462     5  0.0160 pre0_mod02_post0
##  9        2.23e- 9 mae     standard    1.73      5  0.0492 pre0_mod03_post0
## 10        2.23e- 9 mape    standard   17.0       5  0.426  pre0_mod03_post0
## # ℹ 50 more rows
…
