Uma Jornada pelos TidyModels em R - Classificação
…
Age_poly_2
8.663066e+13
2.4744368
12.969689
0
6.900043e+11
1.128418e+16

A função predict() calcula os valores preditos para o conjunto especificado:

logreg_fit %>% predict(diabetes_train)

## # A tibble: 12,000 × 1
##    .pred_class
##    <fct>      
##  1 0          
##  2 0          
##  3 0          
##  4 0          
##  5 0          
##  6 0          
##  7 0          
##  8 0          
##  9 0          
## 10 0          
## # ℹ 11,990 more rows

A predição com tidymodels garante que:

as predições estarão sempre dentro de um dataframe/tibble;

os nomes e tipos das colunas são previsíveis e intuitivas;

o número de linhas em new_data e a saída são iguais.

Pode-se usar também a função augment(), que calcula os valores preditos, adicionando-os em uma coluna no conjunto de dados especificado:

logreg_fit %>% augment(diabetes_train)

## # A tibble: 12,000 × 12
##    .pred_class .pred_1 .pred_0 Pregnancies PlasmaGlucose DiastolicBloodPressure
##    <fct>         <dbl>   <dbl>       <dbl>         <dbl>                  <dbl>
##  1 0            0.289    0.711           0           171                     80
##  2 0            0.420    0.580           7           115                     47
##  3 0            0.0490   0.951           0            82                     92
##  4 0            0.0350   0.965           0           133                     47
##  5 0            0.0730   0.927           1            88                     86
##  6 0            0.0806   0.919           3            94                     96
##  7 0            0.351    0.649           7           110                     82
##  8 0            0.372    0.628           0           148                     58
##  9 0            0.146    0.854           0            92                     84
## 10 0            0.164    0.836           0           118                     95
## # ℹ 11,990 more rows
## # ℹ 6 more variables: TricepsThickness <dbl>, SerumInsulin <dbl>, BMI <dbl>,
## #   DiabetesPedigree <dbl>, Age <dbl>, Diabetic <fct>
…
A métrica obtida no conjunto de validação pode ser tomada como uma estimativa da métrica no conjunto de teste.

Caso seja necessário salvar as predições obtidas nas etapas de validação cruzada, para fazer um gráfico, por exemplo, usamos control_resamples:

ctrl_malaria <- control_resamples(save_pred = TRUE)

logreg_cv <- fit_resamples(logreg_wf, 
               diabetes_folds, 
               control = ctrl_malaria)

logreg_preds <- collect_predictions(logreg_cv)
logreg_preds

## # A tibble: 12,000 × 7
##    .pred_class .pred_1 .pred_0 id    Diabetic  .row .config        
##    <fct>         <dbl>   <dbl> <chr> <fct>    <int> <chr>          
##  1 0            0.0735   0.927 Fold1 0            5 pre0_mod0_post0
##  2 0            0.305    0.695 Fold1 0           20 pre0_mod0_post0
##  3 0            0.109    0.891 Fold1 0           24 pre0_mod0_post0
##  4 0            0.362    0.638 Fold1 0           37 pre0_mod0_post0
##  5 0            0.0716   0.928 Fold1 0           41 pre0_mod0_post0
##  6 0            0.148    0.852 Fold1 0           44 pre0_mod0_post0
##  7 0            0.0791   0.921 Fold1 0           47 pre0_mod0_post0
##  8 0            0.360    0.640 Fold1 0           49 pre0_mod0_post0
##  9 0            0.0798   0.920 Fold1 0           50 pre0_mod0_post0
## 10 0            0.280    0.720 Fold1 0           67 pre0_mod0_post0
## # ℹ 11,990 more rows
…
Para avaliar o desempenho de múltiplos valores do hiperparâmetro usando validação cruzada:

set.seed(2024)
logreglasso_res <-
  tune_grid(logreglasso_wf, 
            resamples = diabetes_folds, 
            grid = 20,
            metrics = diabetes_metrics)

Métricas resultantes da validação cruzada considerando os valores do grid:

logreglasso_res %>% collect_metrics()

## # A tibble: 60 × 7
##     penalty .metric     .estimator  mean     n std_err .config         
##       <dbl> <chr>       <chr>      <dbl> <int>   <dbl> <chr>           
##  1 1.29e-10 accuracy    binary     0.789     5 0.00107 pre0_mod01_post0
##  2 1.29e-10 sensitivity binary     0.6       5 0.00597 pre0_mod01_post0
##  3 1.29e-10 specificity binary     0.883     5 0.00189 pre0_mod01_post0
##  4 2.37e- 9 accuracy    binary     0.789     5 0.00107 pre0_mod02_post0
##  5 2.37e- 9 sensitivity binary     0.6       5 0.00597 pre0_mod02_post0
##  6 2.37e- 9 specificity binary     0.883     5 0.00189 pre0_mod02_post0
##  7 4.73e- 8 accuracy    binary     0.789     5 0.00107 pre0_mod03_post0
##  8 4.73e- 8 sensitivity binary     0.6       5 0.00597 pre0_mod03_post0
##  9 4.73e- 8 specificity binary     0.883     5 0.00189 pre0_mod03_post0
## 10 1.99e- 7 accuracy    binary     0.789     5 0.00107 pre0_mod04_post0
## # ℹ 50 more rows
…
Vamos usar tune_grid() para avaliar múltiplos valores para o hiperparâmetro:

tree_res <-
  tune_grid(tree_wf, 
            resamples = diabetes_folds, 
            grid = 30,
            metrics = diabetes_metrics)

É possível fornecer um data.frame na opção grid, para ser mais específico.

Métricas obtidas por meio de validação cruzada considerando os valores da grade:

tree_res %>% collect_metrics()

## # A tibble: 90 × 7
##    cost_complexity .metric     .estimator  mean     n std_err .config         
##              <dbl> <chr>       <chr>      <dbl> <int>   <dbl> <chr>           
##  1        1.69e-10 accuracy    binary     0.913     5 0.00159 pre0_mod01_post0
##  2        1.69e-10 sensitivity binary     0.869     5 0.00393 pre0_mod01_post0
##  3        1.69e-10 specificity binary     0.935     5 0.00306 pre0_mod01_post0
##  4        5.04e-10 accuracy    binary     0.913     5 0.00159 pre0_mod02_post0
##  5        5.04e-10 sensitivity binary     0.869     5 0.00393 pre0_mod02_post0
##  6        5.04e-10 specificity binary     0.935     5 0.00306 pre0_mod02_post0
##  7        1.02e- 9 accuracy    binary     0.913     5 0.00159 pre0_mod03_post0
##  8        1.02e- 9 sensitivity binary     0.869     5 0.00393 pre0_mod03_post0
##  9        1.02e- 9 specificity binary     0.935     5 0.00306 pre0_mod03_post0
## 10        3.10e- 9 accuracy    binary     0.913     5 0.00159 pre0_mod04_post0
## # ℹ 80 more rows
…
Vamos usar tune_grid() para avaliar o desempenho de múltiplos valores do hiperparâmetro usando validação cruzada:

set.seed(2024)
rf_res <-
  tune_grid(rf_wf, 
            resamples = diabetes_folds, 
            grid = 15,
            metrics = diabetes_metrics)

Métricas resultantes da validação cruzada considerando os valores no grid:

rf_res %>% collect_metrics()

## # A tibble: 24 × 7
##     mtry .metric     .estimator  mean     n std_err .config        
##    <int> <chr>       <chr>      <dbl> <int>   <dbl> <chr>          
##  1     1 accuracy    binary     0.936     5 0.00192 pre0_mod1_post0
##  2     1 sensitivity binary     0.879     5 0.00499 pre0_mod1_post0
##  3     1 specificity binary     0.964     5 0.00333 pre0_mod1_post0
##  4     2 accuracy    binary     0.938     5 0.00282 pre0_mod2_post0
##  5     2 sensitivity binary     0.892     5 0.00289 pre0_mod2_post0
##  6     2 specificity binary     0.960     5 0.00442 pre0_mod2_post0
##  7     3 accuracy    binary     0.938     5 0.00233 pre0_mod3_post0
##  8     3 sensitivity binary     0.895     5 0.00195 pre0_mod3_post0
##  9     3 specificity binary     0.960     5 0.00406 pre0_mod3_post0
## 10     4 accuracy    binary     0.936     5 0.00283 pre0_mod4_post0
## # ℹ 14 more rows
…
Obtenha valores preditos para os dados de teste:

fitted_wf %>% augment(diabetes_test)

## # A tibble: 3,000 × 12
##    .pred_class .pred_1 .pred_0 Pregnancies PlasmaGlucose DiastolicBloodPressure
##    <fct>         <dbl>   <dbl>       <dbl>         <dbl>                  <dbl>
##  1 0            0.324    0.676           8            92                     93
##  2 0            0.107    0.893           1            85                     59
##  3 0            0.0389   0.961           0            67                     87
##  4 0            0.0624   0.938           1            72                     31
##  5 1            0.581    0.419           5           114                    101
##  6 0            0.288    0.712           8           117                     39
##  7 1            0.631    0.369           2            44                     81
##  8 0            0.136    0.864           0           119                     50
##  9 1            0.631    0.369           8           152                     83
## 10 0            0.170    0.830           2           118                     61
## # ℹ 2,990 more rows
## # ℹ 6 more variables: TricepsThickness <dbl>, SerumInsulin <dbl>, BMI <dbl>,
## #   DiabetesPedigree <dbl>, Age <dbl>, Diabetic <fct>
…
set.seed(2024)
wf_tune_res <-  wf_tune_set %>% 
  workflow_map(resamples = diabetes_folds, 
               grid = 40,
               metrics = diabetes_metrics,
               control = control_grid(save_pred = TRUE))

tune_results <- wf_tune_res %>% 
  collect_metrics()
tune_results

## # A tibble: 273 × 9
##    wflow_id  .config        preproc model .metric .estimator  mean     n std_err
##    <chr>     <chr>          <chr>   <chr> <chr>   <chr>      <dbl> <int>   <dbl>
##  1 rec1_tree pre0_mod01_po… formula deci… accura… binary     0.913     5 0.00159
##  2 rec1_tree pre0_mod01_po… formula deci… sensit… binary     0.869     5 0.00393
##  3 rec1_tree pre0_mod01_po… formula deci… specif… binary     0.935     5 0.00306
##  4 rec1_tree pre0_mod02_po… formula deci… accura… binary     0.913     5 0.00159
##  5 rec1_tree pre0_mod02_po… formula deci… sensit… binary     0.869     5 0.00393
##  6 rec1_tree pre0_mod02_po… formula deci… specif… binary     0.935     5 0.00306
##  7 rec1_tree pre0_mod03_po… formula deci… accura… binary     0.913     5 0.00159
##  8 rec1_tree pre0_mod03_po… formula deci… sensit… binary     0.869     5 0.00393
##  9 rec1_tree pre0_mod03_po… formula deci… specif… binary     0.935     5 0.00306
## 10 rec1_tree pre0_mod04_po… formula deci… accura… binary     0.913     5 0.00159
## # ℹ 263 more rows
…
saveRDS(fitted_wf, "diabetes_rf_modelo.rds")

Valores preditos para o conjunto de teste:

final_wf_fit %>% augment()

## # A tibble: 3,000 × 10
##    Diabetic .pred_class Pregnancies PlasmaGlucose DiastolicBloodPressure
##    <fct>    <fct>             <dbl>         <dbl>                  <dbl>
##  1 0        0                     8            92                     93
##  2 0        0                     1            85                     59
##  3 0        0                     0            67                     87
##  4 0        0                     1            72                     31
##  5 1        1                     5           114                    101
##  6 0        0                     8           117                     39
##  7 1        1                     2            44                     81
##  8 0        0                     0           119                     50
##  9 0        0                     8           152                     83
## 10 1        1                     2           118                     61
## # ℹ 2,990 more rows
## # ℹ 5 more variables: TricepsThickness <dbl>, SerumInsulin <dbl>, BMI <dbl>,
## #   DiabetesPedigree <dbl>, Age <dbl>
…
